[
	{
		"Tostada con mermelada": [
			"Tostada con azucar"
		]
	},
	{
		"Tostada con queso": [
			"Tostada"
		]
	},
	{
		"Tostada con azucar": [
			"Tostada"
		]
	},
	{
		"Cuenco de arroz integral": [
			"Cuenco de arroz blanco",
			"Cuenco de poroto negro",
			"Cuenco de lenteja"
		]
	},
	{
		"Cuenco de arroz blanco": [
			"Cuenco de poroto negro",
			"Cuenco de lenteja"
		]
	},
	{
		"Taza de te": [
		]
	},
	{
		"Mate": [
			"Taza de te"
		]
	},
	{
		"Jugo de Naranja": [
		]
	},
	{
		"Naranja": [
			"Jugo de Naranja"
		]
	},
	{
		"Ensalada 1": [
			"Calabaza a la plancha",
			"Papa",
			"Cuenco de lenteja"
		]
	},
	{
		"Ensalada 2": [
			"Calabaza a la plancha",
			"Papa",
			"Cuenco de lenteja"
		]
	},
	{
		"Arroz frito": [
			"Cuenco de arroz blanco",
			"Pasta"
		]
	},
	{
		"Pescado": [
			"Pechuga de pollo",
			"Empanadas de carne",
			"Cuenco de lenteja"
		]
	}
]